{"count":112,"next":"https://api.spaceflightnewsapi.net/v4/articles/?limit=12&offset=12&ordering=-published_at&published_at_gte=2025-11-06","previous":null,"results":[{"id":33906,"title":"Firefly deepens push into defense market after closing SciTec acquisition","authors":[{"name":"Sandra Erwin","socials":null}],"url":"https://spacenews.com/firefly-deepens-push-into-defense-market-after-closing-scitec-acquisition/","image_url":"https://i0.wp.com/spacenews.com/wp-content/uploads/2025/11/G5FX0qCXEAA8JDk.jpeg?fit=800%2C533&ssl=1","news_site":"SpaceNews","summary":"\nOn its third-quarter earnings call Nov. 12, Firefly executives highlighted the company’s alignment with the Pentagon’s planned “Golden Dome” missile defense initiative\nThe post Firefly deepens push into defense market after closing SciTec acquisition appeared first on SpaceNews.","published_at":"2025-11-13T16:35:41Z","updated_at":"2025-11-13T16:40:23.331307Z","featured":false,"launches":[],"events":[]},{"id":33905,"title":"A Stranger in Our Midst?","authors":[{"name":"NASA","socials":null}],"url":"https://science.nasa.gov/blog/a-stranger-in-our-midst/","image_url":"https://assets.science.nasa.gov/dynamicimage/assets/science/missions/mars2020/2025/perseverance-rover-updates/october-2025/Mars_Perseverance_ZL0_1629_0811552971_831EBY_N0790488ZCAM09712_1100LMJ.jpg","news_site":"NASA","summary":"Perseverance Encounters a Possible Meteorite Written by Candice Bedford, Research Scientist at Purdue University Oct. 1, 2025 During the rover’s recent investigation of the bedrock at “Vernodden,” Perseverance encountered an unusually shaped rock about 80 centimeters across (about 31 inches) called “Phippsaksla.” This rock was identified as a target of interest based on its sculpted, […]","published_at":"2025-11-13T16:04:27Z","updated_at":"2025-11-13T16:10:08.017086Z","featured":false,"launches":[],"events":[]},{"id":33904,"title":"Dream Chaser proceeding, hits milestones despite uncertain future","authors":[{"name":"Sawyer Rosenstein","socials":null}],"url":"https://www.nasaspaceflight.com/2025/11/dream-chaser-milestones-future/","image_url":"https://www.nasaspaceflight.com/wp-content/uploads/2025/11/207A6264a-scaled.jpg","news_site":"NASASpaceflight","summary":"Dream Chaser, the vehicle that has been likened to a miniature version of NASA’s space…\nThe post Dream Chaser proceeding, hits milestones despite uncertain future appeared first on NASASpaceFlight.com.","published_at":"2025-11-13T16:01:34Z","updated_at":"2025-11-13T16:01:58.742660Z","featured":false,"launches":[],"events":[]},{"id":33903,"title":"What would a “simplified” Starship plan for the Moon actually look like?","authors":[{"name":"Eric Berger","socials":null}],"url":"https://arstechnica.com/space/2025/11/what-would-a-simplified-starship-plan-for-the-moon-actually-look-like/","image_url":"https://cdn.arstechnica.net/wp-content/uploads/2025/11/07_24_25_HLS_on_surface_elevator_down_4d48994673.jpg","news_site":"Arstechnica","summary":"The problem is that it may be difficult to find options that both NASA and SpaceX like.","published_at":"2025-11-13T15:09:52Z","updated_at":"2025-11-13T15:20:04.278056Z","featured":false,"launches":[],"events":[]},{"id":33902,"title":"ESI Motion Launches “SatBat,” a Revolutionary Space-Rated Battery Set to Redefine Power Systems in Low Earth Orbit","authors":[{"name":"ESI Motion","socials":null}],"url":"https://spacenews.com/esi-motion-launches-satbat-a-revolutionary-space-rated-battery-set-to-redefine-power-systems-in-low-earth-orbit/","image_url":"https://i0.wp.com/spacenews.com/wp-content/uploads/2025/11/ESI-Motion-Square-Logo.png?fit=969%2C1024&ssl=1","news_site":"SpaceNews","summary":"\nSimi Valley, CA — [November 13, 2025] — ESI Motion, a leader in advanced motion and power solutions, proudly announces the release of its next-generation space-rated satellite battery, SatBat, engineered […]\nThe post ESI Motion Launches “SatBat,” a Revolutionary Space-Rated Battery Set to Redefine Power Systems in Low Earth Orbit appeared first on SpaceNews.","published_at":"2025-11-13T15:00:00Z","updated_at":"2025-11-13T15:10:57.297396Z","featured":false,"launches":[],"events":[]},{"id":33901,"title":"Countering China’s Space Silk Road: a U.S. partnership model for the Middle East","authors":[{"name":"Mathew Montiel","socials":null}],"url":"https://spacenews.com/countering-chinas-space-silk-road-a-u-s-partnership-model-for-the-middle-east/","image_url":"https://i0.wp.com/spacenews.com/wp-content/uploads/2025/11/uae-scaled.jpg?fit=1024%2C576&ssl=1","news_site":"SpaceNews","summary":"\nThe Middle East is no longer asking whether it should develop domestic space capabilities; it’s deciding with whom it will develop them. If the United States wants to be the country of choice ahead of China, it must create a joint space partnership agreement framework to align American and partner nations’ industry, government and financial […]\nThe post Countering China’s Space Silk Road: a U.S. partnership model for the Middle East appeared first on SpaceNews.","published_at":"2025-11-13T14:00:00Z","updated_at":"2025-11-13T14:00:24.677445Z","featured":false,"launches":[],"events":[]},{"id":33898,"title":"NASA Patent Remix Challenge","authors":[{"name":"NASA","socials":null}],"url":"https://www.nasa.gov/directorates/stmd/prizes-challenges-crowdsourcing-program/center-of-excellence-for-collaborative-innovation-coeci/nasa-patent-remix-challenge/","image_url":"https://www.nasa.gov/wp-content/uploads/2025/11/patent-remix-challenge-promotional-image.jpg","news_site":"NASA","summary":"NASA’s Technology Transfer Office invites entrepreneurs, innovators, and creative thinkers to apply NASA’s patented technologies to practical applications. Participants will select an existing NASA patent and develop a business or product concept that will be evaluated based on value proposition, business model viability, development feasibility, and quality of presentation. Entries should clearly demonstrate creativity, feasibility, […]","published_at":"2025-11-13T13:38:48Z","updated_at":"2025-11-13T13:40:05.591010Z","featured":false,"launches":[],"events":[]},{"id":33899,"title":"Live coverage: ULA to launch ViaSat-3 following valve replacement on Atlas 5 rocket","authors":[{"name":"Will Robinson-Smith","socials":null}],"url":"https://spaceflightnow.com/2025/11/13/live-coverage-ula-to-launch-viasat-3-following-valve-replacement-on-atlas-5-rocket/","image_url":"http://spaceflightnow.com/wp-content/uploads/2025/11/20251113_ViaSat-3_F2_pad_AB-2.jpeg","news_site":"Spaceflight Now","summary":"The mission is the second of three planned spacecraft that Viasat plans to operate in geostationary orbit. United Launch Alliance is targeting liftoff from pad 41 at Cape Canaveral Space Force Station at 10:04 p.m. EST (0304 UTC). ","published_at":"2025-11-13T13:37:48Z","updated_at":"2025-11-13T13:40:19.783773Z","featured":false,"launches":[],"events":[]},{"id":33900,"title":"Keeping America first in space","authors":[{"name":"SpaceNews Editor","socials":null}],"url":"https://spacenews.com/keeping-america-first-in-space/","image_url":"https://i0.wp.com/spacenews.com/wp-content/uploads/2025/07/070325-space-minds-podcast-moon-2000-1500.jpg?fit=1024%2C768&ssl=1","news_site":"SpaceNews","summary":"\nIn this episode of Space Minds, host David Ariosto speaks with Jim Bridenstine, former NASA Administrator and U.S. Congressman, who oversaw the launch of the Artemis program—America’s renewed effort to return astronauts to the Moon.\nThe post Keeping America first in space appeared first on SpaceNews.","published_at":"2025-11-13T13:34:44Z","updated_at":"2025-11-13T13:40:19.973453Z","featured":false,"launches":[],"events":[]},{"id":33897,"title":"Live coverage: Blue Origin to launch NASA’s ESCAPADE following scrubs from clouds, space weather","authors":[{"name":"Will Robinson-Smith","socials":null}],"url":"https://spaceflightnow.com/2025/11/13/live-coverage-blue-origin-to-launch-nasas-escapade-following-scrubs-from-clouds-space-weather/","image_url":"http://spaceflightnow.com/wp-content/uploads/2025/11/20251113_NG-2_pad_BO.jpeg","news_site":"Spaceflight Now","summary":"Blue Origin was able to secure permission from the Federal Aviation Administration for a daytime launch attempt while the emergency order constraining commercial launches remains in place even after the end of the government shutdown. Liftoff is scheduled during an 88-minute-long window that opens at 2:57 p.m. EST (1957 UTC). ","published_at":"2025-11-13T13:17:28Z","updated_at":"2025-11-13T13:20:20.557931Z","featured":false,"launches":[],"events":[]},{"id":33894,"title":"Spectrum Rocket Stages Arrive at Launch Facility for Second Flight","authors":[{"name":"European Spaceflight","socials":null}],"url":"https://europeanspaceflight.com/spectrum-rocket-stages-arrive-at-launch-facility-for-second-flight/","image_url":"https://europeanspaceflight.com/wp-content/uploads/2025/11/Spectrum-Rocket-Stages-Arrive-at-Launch-Facility-for-Second-Flight.webp","news_site":"European Spaceflight","summary":"German launch services provider Isar Aerospace has announced that the stages for the second flight of its Spectrum rocket have arrived at its launch facility in Norway. Isar Aerospace launched the inaugural flight of its 28-metre, two-stage Spectrum rocket on 30 March. Less than thirty seconds after liftoff, the rocket’s Flight Termination System was triggered […]\nThe post Spectrum Rocket Stages Arrive at Launch Facility for Second Flight appeared first on European Spaceflight.","published_at":"2025-11-13T12:51:42Z","updated_at":"2025-11-13T13:00:14.407300Z","featured":false,"launches":[],"events":[]},{"id":33896,"title":"A close-up look <br>at the first metal <br>part made in space","authors":[{"name":"ESA","socials":null}],"url":"https://www.esa.int/Enabling_Support/Space_Engineering_Technology/A_close-up_look_br_at_the_first_metal_br_part_made_in_space","image_url":"https://www.esa.int/var/esa/storage/images/esa_multimedia/images/2025/11/3d-printed_space_metal_under_microscope/26968312-1-eng-GB/3D-printed_space_metal_under_microscope_card_full.jpg","news_site":"ESA","summary":"This February, the first-ever metal part 3D-printed in space landed on Earth. Produced in the European Space Agency’s Metal 3D Printer Technology Demonstrator on the International Space Station, it is now in the hands of ESA’s engineers at ESTEC, the agency’s technical centre in the Netherlands, who poke and prod it to understand how microgravity affected its printing process.","published_at":"2025-11-13T12:50:00Z","updated_at":"2025-11-13T13:00:16.903254Z","featured":false,"launches":[],"events":[]}]}