{"count":213,"next":"https://api.spaceflightnewsapi.net/v4/articles/?limit=12&offset=12&ordering=-published_at&published_at_gte=2025-11-18","previous":null,"results":[{"id":34231,"title":"Making COMSATCOM accessible for large-scale defense requirements","authors":[{"name":"Charles “Chuck” Cynamon","socials":null}],"url":"https://spacenews.com/making-comsatcom-accessible-for-large-scale-defense-requirements/","image_url":"https://i0.wp.com/spacenews.com/wp-content/uploads/2025/08/Golden-Dome-scaled.jpg?fit=1024%2C576&ssl=1","news_site":"SpaceNews","summary":"\nThe rise of peer adversaries and new offensive weapons is changing communications requirements from military command headquarters to the warfighting edge. That brings an increased need for secure, reliable networking capacity to meet real-time response demands of modern battlefield situations. Rapid communications will also be integral to achieving the vision of the Golden Dome multi-layer […]\nThe post Making COMSATCOM accessible for large-scale defense requirements  appeared first on SpaceNews.","published_at":"2025-11-25T14:00:00Z","updated_at":"2025-11-25T14:00:22.911595Z","featured":false,"launches":[],"events":[]},{"id":34230,"title":"BlackSky announces latest Gen-3 satellite in orbit after confidential Electron launch","authors":[{"name":"Jeff Foust","socials":{"x":"https://x.com/jeff_foust","youtube":"","instagram":"","linkedin":"https://www.linkedin.com/in/jefffoust","mastodon":"https://mastodon.social/@jfoust","bluesky":"https://bsky.app/profile/jfoust.bsky.social"}}],"url":"https://spacenews.com/blacksky-announces-latest-gen-3-satellite-in-orbit-after-confidential-electron-launch/","image_url":"https://i0.wp.com/spacenews.com/wp-content/uploads/2025/11/gen3-3rdsat-1stlight.jpeg?fit=1024%2C576&ssl=1","news_site":"SpaceNews","summary":"\nEarth observation company BlackSky was the confidential customer for the latest Rocket Lab launch, placing into orbit a satellite that has already returned its first images.\nThe post BlackSky announces latest Gen-3 satellite in orbit after confidential Electron launch appeared first on SpaceNews.","published_at":"2025-11-25T13:30:02Z","updated_at":"2025-11-25T13:30:19.771186Z","featured":false,"launches":[],"events":[]},{"id":34229,"title":"Polish Consortium Successfully Tests Three-Stage Suborbital Rocket","authors":[{"name":"European Spaceflight","socials":null}],"url":"https://europeanspaceflight.com/polish-consortium-successfully-tests-three-stage-suborbital-rocket/","image_url":"https://europeanspaceflight.com/wp-content/uploads/2025/11/Polish-Consortium-Successfully-Tests-Three-Stage-Suborbital-Rocket.webp","news_site":"European Spaceflight","summary":"A consortium of Polish state-owned and private companies has successfully tested a three-stage suborbital rocket being developed to carry research payloads above the Kármán line, the internationally recognised boundary between Earth’s atmosphere and space. The project began in early 2020 and received roughly 18.6 million zł (€4.1 million) in EU funding through the European Regional […]\nThe post Polish Consortium Successfully Tests Three-Stage Suborbital Rocket appeared first on European Spaceflight.","published_at":"2025-11-25T13:08:10Z","updated_at":"2025-11-25T13:10:11.913048Z","featured":false,"launches":[],"events":[]},{"id":34228,"title":"Ethiopian volcanic plume","authors":[{"name":"ESA","socials":null}],"url":"https://www.esa.int/ESA_Multimedia/Images/2025/11/Ethiopian_volcanic_plume","image_url":"https://www.esa.int/var/esa/storage/images/esa_multimedia/images/2025/11/ethiopian_volcanic_plume/26991742-1-eng-GB/Ethiopian_volcanic_plume_card_full.gif","news_site":"ESA","summary":"From the ESA Blogs.","published_at":"2025-11-25T10:52:00Z","updated_at":"2025-11-25T11:20:14.174489Z","featured":false,"launches":[],"events":[]},{"id":34225,"title":"Best 7 EV Charging App Development Companies Powering eMobility in 2025","authors":[{"name":"SpaceDaily","socials":null}],"url":"https://www.spacedaily.com/reports/Best_7_EV_Charging_App_Development_Companies_Powering_eMobility_in_2025_999.html","image_url":"https://www.spxdaily.com/images-bg/smartphone-app-software-bg.jpg","news_site":"SpaceDaily","summary":"Los Angeles CA (SPX) Nov 25, 2025\n\nElectric vehicle adoption has reached a tipping point, transforming from niche market to mainstream transportation choice. This shift creates massive demand for reliable charging infrastructure and the apps that make it accessible.","published_at":"2025-11-25T10:06:14Z","updated_at":"2025-11-25T09:00:14.417740Z","featured":false,"launches":[],"events":[]},{"id":34226,"title":"Shenzhou-22 docks at Tiangong space station, resolving human spaceflight emergency","authors":[{"name":"Andrew Jones","socials":null}],"url":"https://spacenews.com/shenzhou-22-docks-at-tiangong-space-station-resolving-human-spaceflight-emergency/","image_url":"https://i0.wp.com/spacenews.com/wp-content/uploads/2025/11/Shenzhou22-launch-CZ2F-JSLC-25nov2025-CASC.jpg?fit=1024%2C681&ssl=1","news_site":"SpaceNews","summary":"\nChina’s uncrewed Shenzhou-22 spacecraft has arrived at the Tiangong space station, reestablishing a lifeboat for the crew and ending the orbital outpost’s first operational emergency.\nThe post Shenzhou-22 docks at Tiangong space station, resolving human spaceflight emergency appeared first on SpaceNews.","published_at":"2025-11-25T10:03:20Z","updated_at":"2025-11-25T10:10:21.087225Z","featured":false,"launches":[],"events":[]},{"id":34232,"title":"SpainSat NG programme completed as second secure communications satellite launches","authors":[{"name":"ESA","socials":null}],"url":"https://www.esa.int/Applications/Connectivity_and_Secure_Communications/SpainSat_NG_programme_completed_as_second_secure_communications_satellite_launches","image_url":"https://www.esa.int/var/esa/storage/images/esa_multimedia/images/2025/11/spainsat_ng_ii_packing/26990830-1-eng-GB/SpainSat_NG_II_packing_card_full.jpg","news_site":"ESA","summary":"Europe has strengthened its secure-communications capabilities with the successful launch of SpainSat NG II on 24 October, wrapping up the SpainSat Next Generation programme supported by the European Space Agency (ESA). With both SpainSat NG satellites now in orbit, Europe will see its most advanced governmental communications system to date, a major step for the continent’s security, crisis-response capacity, and technological autonomy.","published_at":"2025-11-25T08:48:00Z","updated_at":"2025-11-25T15:20:13.783864Z","featured":false,"launches":[],"events":[]},{"id":34211,"title":"China launches Shenzhou-22 early for stranded space station crew","authors":[{"name":"SpaceDaily","socials":null}],"url":"https://www.spacedaily.com/reports/China_launches_Shenzhou-22_early_for_stranded_space_station_crew_999.html","image_url":"https://www.spxdaily.com/images-bg/china-manned-shenzhou-xvi-16-long-march-2f-carrier-rocket-rails-pad-day-bg.jpg","news_site":"SpaceDaily","summary":"Beijing (AFP) Nov 25, 2025\n\n\n China conducted an urgent unmanned spacecraft launch on Tuesday, after damage to a previous mission's return capsule left the crew on its space station without a means of getting back to Earth. \n\nThe Long March-2F rocket carrying Shenzhou-22 lifted off shortly after midday from the Jiuquan Satellite Launch Centre in northwest China, footage from state broadcaster CCTV showed. \n\nRecent Shenzh","published_at":"2025-11-25T08:03:27Z","updated_at":"2025-11-25T07:00:16.384442Z","featured":false,"launches":[],"events":[]},{"id":34210,"title":"Outage Prevention from Orbit: Why Utilities Are Turning to Satellites and Geospatial Analytics","authors":[{"name":"SpaceDaily","socials":null}],"url":"https://www.spacedaily.com/reports/Outage_Prevention_from_Orbit_Why_Utilities_Are_Turning_to_Satellites_and_Geospatial_Analytics_999.html","image_url":"https://www.spxdaily.com/images-bg/satelytics-ai-powered-geospatial-utility-safety-splash-bg.jpg","news_site":"SpaceDaily","summary":"Perrysburg OH (SPX) Nov 25, 2025\n\nUtilities and local energy distribution companies (LDCs) face ongoing challenges in managing their infrastructure. Keeping track of power lines, pipelines, energy plant emissions, and other assets is essential to prevent power outages, wildfires, broken power lines, and methane leaks.","published_at":"2025-11-25T08:03:27Z","updated_at":"2025-11-25T07:00:16.283554Z","featured":false,"launches":[],"events":[]},{"id":34212,"title":"Blue Ring mission to expand commercial GEO space domain awareness","authors":[{"name":"SpaceDaily","socials":null}],"url":"https://www.spacedaily.com/reports/Blue_Ring_mission_to_expand_commercial_GEO_space_domain_awareness_999.html","image_url":"https://www.spxdaily.com/images-bg/blue-origin-blue-ring-spacecraft-orbit-artwork-2025-bg.jpg","news_site":"SpaceDaily","summary":"Los Angeles CA (SPX) Nov 25, 2025\n\n\nBlue Origin has reached an agreement with Optimum Technologies (OpTech) to incorporate the Caracal optical payload into the inaugural mission of Blue Ring, a spacecraft designed for multi-mission payload delivery, hosting, and infrastructure support. \n\nThe first launch is planned for 2026, beginning in Geostationary Transfer Orbit and then transitioning to Geostationary Orbit to conduct furt","published_at":"2025-11-25T08:03:27Z","updated_at":"2025-11-25T07:00:16.455695Z","featured":false,"launches":[],"events":[]},{"id":34213,"title":"Looking inside icy moons","authors":[{"name":"SpaceDaily","socials":null}],"url":"https://www.spacedaily.com/reports/Looking_inside_icy_moons_999.html","image_url":"https://www.spxdaily.com/images-bg/saturn-moon-mimas-rings-bg.jpg","news_site":"SpaceDaily","summary":"Davis, CA (SPX) Nov 25, 2025\n\n\nThe outer planets of the Solar System are swarmed by ice-wrapped moons. Some of these, such as Saturn's moon Enceladus, are known to have oceans of liquid water between the ice shell and the rocky core and could be the best places in our solar system to look for extraterrestrial life. A new study published Nov. 24 in Nature Astronomy sheds light on what could be going on beneath the surface of t","published_at":"2025-11-25T08:03:27Z","updated_at":"2025-11-25T07:00:16.477315Z","featured":false,"launches":[],"events":[]},{"id":34214,"title":"BepiColombo nears Mercury orbital arrival after seven year journey","authors":[{"name":"SpaceDaily","socials":null}],"url":"https://www.spacedaily.com/reports/BepiColombo_nears_Mercury_orbital_arrival_after_seven_year_journey_999.html","image_url":"https://www.spxdaily.com/images-bg/bepicolombo-montage-bg.jpg","news_site":"SpaceDaily","summary":"Paris, France (SPX) Nov 25, 2025\n\n\nThe ESA and JAXA BepiColombo mission is entering its final year of approach to Mercury, on track to reach orbit in November 2026 after launching in October 2018. The dual-spacecraft mission has already completed one flyby of Earth, two of Venus, and six of Mercury, collecting solar activity and magnetosphere data en route. \n\nThroughout its cruise, BepiColombo measured planetary magnetic envi","published_at":"2025-11-25T08:03:27Z","updated_at":"2025-11-25T07:00:16.559585Z","featured":false,"launches":[],"events":[]}]}