{"count":197,"next":"https://api.spaceflightnewsapi.net/v4/articles/?limit=12&offset=12&ordering=-published_at&published_at_gte=2025-11-20","previous":null,"results":[{"id":34280,"title":"China set for first orbital launch and landing attempt this weekend with commercial Zhuque-3 rocket","authors":[{"name":"Andrew Jones","socials":null}],"url":"https://spacenews.com/china-set-for-first-orbital-launch-and-landing-attempt-this-weekend-with-commercial-zhuque-3-rocket/","image_url":"https://i0.wp.com/spacenews.com/wp-content/uploads/2025/06/Zhuque3-1st-stage-static-fire-Jiquuan-20june2025-Landspace.jpg?fit=1024%2C683&ssl=1","news_site":"SpaceNews","summary":"\nHELSINKI — Chinese commercial launch firm Landspace is preparing to attempt the country’s first orbital launch and booster landing this weekend with its Zhuque-3 rocket. Airspace closure notices issued under the Civil Aviation Administration of China (CAAC) indicate a launch attempt from the vicinity of Jiuquan Satellite Launch Center between around 11:00 p.m. Eastern Nov. […]\nThe post China set for first orbital launch and landing attempt this weekend with commercial Zhuque-3 rocket appeared first on SpaceNews.","published_at":"2025-11-27T11:06:44Z","updated_at":"2025-11-27T11:10:17.190340Z","featured":false,"launches":[],"events":[]},{"id":34279,"title":"ESA and Norway announce plans for an Arctic Space Centre","authors":[{"name":"Emma Gatti","socials":null}],"url":"https://spacenews.com/esa-and-norway-announce-plans-for-an-arctic-space-centre/","image_url":"https://i0.wp.com/spacenews.com/wp-content/uploads/2025/11/Norwegian_Minister_of_Trade_and_Industry_Cecilie_Myrseth_and_ESA_Director_General_Josef_Aschbacher_sign_letter_of_intent-scaled.jpg?fit=1024%2C683&ssl=1","news_site":"SpaceNews","summary":"\nESA and Norway have signed a letter of intent and formed a joint working group to assess the feasibility of a new ESA Arctic Space Centre.\nThe post ESA and Norway announce plans for an Arctic Space Centre appeared first on SpaceNews.","published_at":"2025-11-27T10:32:44Z","updated_at":"2025-11-27T10:40:19.618833Z","featured":false,"launches":[],"events":[]},{"id":34278,"title":"Inaugural Space Rider Flight to Occur in 2028","authors":[{"name":"European Spaceflight","socials":null}],"url":"https://europeanspaceflight.com/inaugural-space-rider-flight-to-occur-in-2028/","image_url":"https://europeanspaceflight.com/wp-content/uploads/2025/11/Inaugural-Space-Rider-Flight-to-Occur-in-2028.webp","news_site":"European Spaceflight","summary":"The European Space Agency has announced that the inaugural flight of its reusable Space Rider vehicle is expected in 2028. Space Rider is an eight-metre-long reusable spacecraft designed to carry technology demonstration and scientific payloads into orbit for up to two months before returning them to Earth. The spacecraft employs a steerable parafoil to enable […]\r\nThe post Inaugural Space Rider Flight to Occur in 2028 appeared first on European Spaceflight.","published_at":"2025-11-27T09:40:51Z","updated_at":"2025-11-27T10:51:15.739713Z","featured":false,"launches":[{"launch_id":"d74f2e7b-a8b7-4d8f-8ecd-193e73937664","provider":"Launch Library 2"}],"events":[]},{"id":34277,"title":"Pacific Geomatics and SI Analytics Announce Strategic Partnership to Deliver Super-Resolution Capabilities Across Canada","authors":[{"name":"Pacific Geomatics Limited (PacGeo)","socials":null}],"url":"https://spacenews.com/pacific-geomatics-and-si-analytics-announce-strategic-partnership-to-deliver-super-resolution-capabilities-across-canada/","image_url":"https://i0.wp.com/spacenews.com/wp-content/uploads/2025/11/pacgeo.jpg?fit=1024%2C1024&ssl=1","news_site":"SpaceNews","summary":"\nVictoria, Canada / Seoul, South Korea – November 27th, 2025 – Pacific Geomatics Limited (PacGeo), a Canadian satellite imagery distributor, today announced a strategic partnership with SI Analytics (SIA), a […]\nThe post Pacific Geomatics and SI Analytics Announce Strategic Partnership to Deliver Super-Resolution Capabilities Across Canada appeared first on SpaceNews.","published_at":"2025-11-27T03:52:58Z","updated_at":"2025-11-27T04:00:32.882596Z","featured":false,"launches":[],"events":[]},{"id":34276,"title":"BlackSky confirms it was the ‘confidential customer’ on recent Rocket Lab Electron rocket launch","authors":[{"name":"Will Robinson-Smith","socials":null}],"url":"https://spaceflightnow.com/2025/11/27/blacksky-confirms-it-was-the-confidential-customer-on-recent-rocket-lab-electron-rocket-launch/","image_url":"http://spaceflightnow.com/wp-content/uploads/2025/11/20251125_Follow_My_Speed_launch.jpeg","news_site":"Spaceflight Now","summary":"The Earth imaging company released a statement on Tuesday stating that its latest Gen-3 satellite launched successfully and began sending high-quality images within 24 hours.","published_at":"2025-11-27T00:13:59Z","updated_at":"2025-11-27T10:51:13.731749Z","featured":false,"launches":[{"launch_id":"f9e4852a-fba8-4937-9a86-5a05b3244fb1","provider":"Launch Library 2"}],"events":[]},{"id":34274,"title":"ESA DG Says NASA Confirms Commitment to ExoMars Rover","authors":[{"name":"Marcia Smith","socials":null}],"url":"https://spacepolicyonline.com/news/esa-dg-says-nasa-confirms-commitment-to-exomars-rover/","image_url":"https://pbs.twimg.com/profile_images/548027983/Website_logo_400x400.jpg","news_site":"SpacePolicyOnline.com","summary":"ESA Director General Josef Aschbacher announced today that NASA has confirmed it will help get the ExoMars Rosalind Franklin rover to Mars. Developed in partnership with Roscosmos, ESA terminated all […]","published_at":"2025-11-26T23:46:40Z","updated_at":"2025-11-26T23:50:13.723362Z","featured":false,"launches":[],"events":[]},{"id":34273,"title":"ESA on ‘good track’ to secure funding despite notes of caution","authors":[{"name":"Jeff Foust","socials":{"x":"https://x.com/jeff_foust","youtube":"","instagram":"","linkedin":"https://www.linkedin.com/in/jefffoust","mastodon":"https://mastodon.social/@jfoust","bluesky":"https://bsky.app/profile/jfoust.bsky.social"}}],"url":"https://spacenews.com/esa-on-good-track-to-secure-funding-despite-notes-of-caution/","image_url":"https://i0.wp.com/spacenews.com/wp-content/uploads/2025/11/cm25-dgspeech.jpeg?fit=1024%2C683&ssl=1","news_site":"SpaceNews","summary":"\nESA wrapped up the first day of a critical ministerial conference sounding upbeat about progress in securing funding for the next three years, despite a few warning signs.\nThe post ESA on ‘good track’ to secure funding despite notes of caution appeared first on SpaceNews.","published_at":"2025-11-26T22:36:29Z","updated_at":"2025-11-26T22:40:18.283254Z","featured":false,"launches":[],"events":[]},{"id":34272,"title":"Soyuz MS-28 poised to launch three new crew members to ISS","authors":[{"name":"Haygen Warren","socials":null}],"url":"https://www.nasaspaceflight.com/2025/11/soyuz-ms-28-launch/","image_url":"https://www.nasaspaceflight.com/wp-content/uploads/2025/11/54943852583_ab688ca4b6_6k-scaled-e1764191810836.jpg","news_site":"NASASpaceflight","summary":"The next crewed mission to the International Space Station is set for launch from Kazakhstan.…\r\nThe post Soyuz MS-28 poised to launch three new crew members to ISS appeared first on NASASpaceFlight.com.","published_at":"2025-11-26T22:00:50Z","updated_at":"2025-11-27T10:51:00.350542Z","featured":false,"launches":[{"launch_id":"40beac6e-ce8e-4481-8cf9-56d1d9c48804","provider":"Launch Library 2"}],"events":[]},{"id":34271,"title":"SmartSky won’t block Gogo 5G air-to-ground network despite legal win","authors":[{"name":"Jason Rainbow","socials":{"x":"","youtube":"","instagram":"","linkedin":"https://www.linkedin.com/in/jasonrainbow","mastodon":"","bluesky":""}}],"url":"https://spacenews.com/smartsky-wont-block-gogo-5g-air-to-ground-network-despite-legal-win/","image_url":"https://i0.wp.com/spacenews.com/wp-content/uploads/2025/11/Gogo-ATG-5G.jpg?fit=1024%2C826&ssl=1","news_site":"SpaceNews","summary":"\nSmartSky Networks does not plan to seek an injunction to block Gogo’s 5G air-to-ground rollout across the United States, despite prevailing in a patent-infringement lawsuit tied to the technology.\nThe post SmartSky won’t block Gogo 5G air-to-ground network despite legal win appeared first on SpaceNews.","published_at":"2025-11-26T19:46:53Z","updated_at":"2025-11-26T19:50:20.043899Z","featured":false,"launches":[],"events":[]},{"id":34275,"title":"PLANETS Units Have Landed – Free NASA-Funded Out-of-School Time Resources","authors":[{"name":"NASA","socials":null}],"url":"https://science.nasa.gov/learning-resources/science-activation/planets-units-have-landed-free-nasa-funded-out-of-school-time-resources/","image_url":"https://assets.science.nasa.gov/dynamicimage/assets/science/cds/learn/science-activation-stories/2025/PLANETS_Space_Hazards-Lauren_Shollenberger.jpg","news_site":"NASA","summary":"The NASA Science Activation program’s PLANETS (Planetary Learning that Advances the Nexus of Engineering, Technology, and Science) project, led by Northern Arizona University (NAU), is pleased to announce the official launch of three free out-of-school (OST) time units that give all learners in grades 3-5 and 6-8 the chance to do real planetary science and […]","published_at":"2025-11-26T18:18:54Z","updated_at":"2025-11-27T00:10:05.944807Z","featured":false,"launches":[],"events":[]},{"id":34270,"title":"Artemis II Orion Spacecraft Stacked","authors":[{"name":"NASA","socials":null}],"url":"https://www.nasa.gov/image-article/artemis-ii-orion-spacecraft-stacked/","image_url":"https://www.nasa.gov/wp-content/uploads/2025/11/ksc-20251020-ph-kls01-0050orig-rotated.jpg","news_site":"NASA","summary":"In this Oct. 20, 2025, photo, NASA’s Artemis II Orion spacecraft with its launch abort system is stacked atop the agency’s SLS (Space Launch System) rocket in the Vehicle Assembly Building at NASA’s Kennedy Space Center in Florida. Orion will carry NASA astronauts Reid Wiseman, Victor Glover, Christina Koch, and CSA (Canadian Space Agency) astronaut […]","published_at":"2025-11-26T17:40:34Z","updated_at":"2025-11-27T10:50:53.833687Z","featured":false,"launches":[{"launch_id":"41699701-2ef4-4b0c-ac9d-6757820cde87","provider":"Launch Library 2"}],"events":[]},{"id":34269,"title":"SpaceX’s Falcon 9 set to launch 140 payloads on Transporter-15","authors":[{"name":"Eleanor Day","socials":null}],"url":"https://www.nasaspaceflight.com/2025/11/transporter-15/","image_url":"https://www.nasaspaceflight.com/wp-content/uploads/2025/11/20251126_transporter15_hill_00001_98222ff37a-scaled-e1764176839143.jpg","news_site":"NASASpaceflight","summary":"SpaceX is set to launch 140 commercial payloads to Sun-synchronous orbit on its sixth rideshare…\r\nThe post SpaceX’s Falcon 9 set to launch 140 payloads on Transporter-15 appeared first on NASASpaceFlight.com.","published_at":"2025-11-26T17:11:45Z","updated_at":"2025-11-27T10:50:45.033727Z","featured":false,"launches":[{"launch_id":"dc4c201e-b11d-4650-91cc-ecc2eec95598","provider":"Launch Library 2"}],"events":[]}]}